…
steps_per_day <- data %>% group_by(date) %>% summarize(sum=sum(steps,na.rm=TRUE),mean=mean(steps,na.rm = TRUE))

steps_per_interval <- data %>% group_by(interval) %>% summarize(Average=mean(steps,na.rm = TRUE))
```

## What is mean total number of steps taken per day?

Total number of steps taken per day:

```r
print(steps_per_day)
```

```
## # A tibble: 61 x 3
##    date         sum    mean
##    <fct>      <int>   <dbl>
##  1 2012-10-01     0 NaN    
##  2 2012-10-02   126   0.438
##  3 2012-10-03 11352  39.4  
##  4 2012-10-04 12116  42.1  
##  5 2012-10-05 13294  46.2  
##  6 2012-10-06 15420  53.5  
##  7 2012-10-07 11015  38.2  
##  8 2012-10-08     0 NaN    
##  9 2012-10-09 12811  44.5  
## 10 2012-10-10  9900  34.4  
## # ... with 51 more rows
```
…
